Analysing General Social Survey Data · Ismaeel Haq Portfolio
…
Using the infer package, calculate a 95% bootstrap confidence interval for the mean amount of time Americans spend on email weekly. Interpret this interval in context of the data, reporting its endpoints in “humanized” units (e.g. instead of 108 minutes, report 1 hr and 8 minutes). If you get a result that seems a bit odd, discuss why you think this might be the case.

Would you expect a 99% confidence interval to be wider or narrower than the interval you calculated above? Explain your reasoning.

Combining emailhr and emailmin into a new variable `email’

email <- gss %>%
  mutate_at(vars(emailhr,emailmin), funs(as.numeric)) %>% 
  mutate(email=emailmin*(emailhr*60)) %>% 
  arrange(desc(email))

email

## # A tibble: 2,867 x 9
##    emailmin emailhr snapchat instagrm twitter sex    degree     snap_insta email
##       <dbl>   <dbl> <chr>    <chr>    <chr>   <chr>  <chr>      <chr>      <dbl>
##  1       30      12 NA       NA       NA      Female High scho… NA         21600
##  2       15      20 No       Yes      No      Female High scho… Yes        18000
##  3       30       9 NA       NA       NA      Female Graduate   NA         16200
##  4       30       8 No       No       Yes     Male   Graduate   No         14400
##  5       30       3 NA       NA       NA      Male   High scho… NA          5400
##  6       30       3 NA       NA       NA      Female Graduate   NA          5400
##  7       30       3 NA       NA       NA      Male   Graduate   NA          5400
##  8       30       2 No       No       No      Male   Graduate   No          3600
##  9       30       2 NA       NA       NA      Male   Graduate   NA          3600
## 10       30       2 No       No       No      Female Bachelor   No          3600
## # … with 2,857 more rows
…
